INDEX VERSION 1.3+C:\TS\notes\3.AdvJava\AdvWorkSpace4\.metadata\.plugins\org.eclipse.wst.jsdt.core\indexes
3616391037.index
4216835596.index
2580874688.index
4252843327.index
3291254584.index
1109590818.index
