INDEX VERSION 1.3+C:\TS\notes\3.AdvJava\AdvWorkSpace3\.metadata\.plugins\org.eclipse.wst.jsdt.core\indexes
2889170302.index
2193410473.index
2501128042.index
3268989307.index
1859785169.index
3719990032.index
1249367877.index
