INDEX VERSION 1.3+C:\TS\notes\3.AdvJava\AdvWorkSpace2\.metadata\.plugins\org.eclipse.wst.jsdt.core\indexes
227140668.index
3316073910.index
2540044494.index
2488477199.index
2568375775.index
3084173664.index
